C:\Users\JCUESTA\Desktop\Proyecto\KardexStore\src\main\java\com\cidenet\kardex\controller\StorageController.java
C:\Users\JCUESTA\Desktop\Proyecto\KardexStore\src\main\java\com\cidenet\kardex\controller\SupplierController.java
C:\Users\JCUESTA\Desktop\Proyecto\KardexStore\src\main\java\com\cidenet\kardex\controller\PriceOfProductController.java
C:\Users\JCUESTA\Desktop\Proyecto\KardexStore\src\main\java\com\cidenet\kardex\model\SupplierModel.java
C:\Users\JCUESTA\Desktop\Proyecto\KardexStore\src\main\java\com\cidenet\kardex\controller\OrderController.java
C:\Users\JCUESTA\Desktop\Proyecto\KardexStore\src\main\java\com\cidenet\kardex\modelDao\ProductTypeDao.java
C:\Users\JCUESTA\Desktop\Proyecto\KardexStore\src\main\java\com\cidenet\kardex\interfaces\Employee.java
C:\Users\JCUESTA\Desktop\Proyecto\KardexStore\src\main\java\com\cidenet\kardex\interfaces\General.java
C:\Users\JCUESTA\Desktop\Proyecto\KardexStore\src\main\java\com\cidenet\kardex\model\SizeModel.java
C:\Users\JCUESTA\Desktop\Proyecto\KardexStore\src\main\java\com\cidenet\kardex\controller\PersonageController.java
C:\Users\JCUESTA\Desktop\Proyecto\KardexStore\src\main\java\com\cidenet\kardex\modelDao\SupplierDao.java
C:\Users\JCUESTA\Desktop\Proyecto\KardexStore\src\main\java\com\cidenet\kardex\controller\DocumentTypeController.java
C:\Users\JCUESTA\Desktop\Proyecto\KardexStore\src\main\java\com\cidenet\kardex\model\EmployeeModel.java
C:\Users\JCUESTA\Desktop\Proyecto\KardexStore\src\main\java\com\cidenet\kardex\model\PriceOfProductModel.java
C:\Users\JCUESTA\Desktop\Proyecto\KardexStore\src\main\java\com\cidenet\kardex\interfaces\Personage.java
C:\Users\JCUESTA\Desktop\Proyecto\KardexStore\src\main\java\com\cidenet\kardex\interfaces\Storage.java
C:\Users\JCUESTA\Desktop\Proyecto\KardexStore\src\main\java\com\cidenet\kardex\controller\ProductTypeController.java
C:\Users\JCUESTA\Desktop\Proyecto\KardexStore\src\main\java\com\cidenet\kardex\modelDao\OrderDao.java
C:\Users\JCUESTA\Desktop\Proyecto\KardexStore\src\main\java\com\cidenet\kardex\interfaces\Store.java
C:\Users\JCUESTA\Desktop\Proyecto\KardexStore\src\main\java\com\cidenet\kardex\model\OrderModel.java
C:\Users\JCUESTA\Desktop\Proyecto\KardexStore\src\main\java\com\cidenet\kardex\interfaces\Supplier.java
C:\Users\JCUESTA\Desktop\Proyecto\KardexStore\src\main\java\com\cidenet\kardex\model\DocumentModel.java
C:\Users\JCUESTA\Desktop\Proyecto\KardexStore\src\main\java\com\cidenet\kardex\modelDao\PersonageDao.java
C:\Users\JCUESTA\Desktop\Proyecto\KardexStore\src\main\java\com\cidenet\kardex\modelDao\EmployeeDao.java
C:\Users\JCUESTA\Desktop\Proyecto\KardexStore\src\main\java\com\cidenet\kardex\interfaces\Size.java
C:\Users\JCUESTA\Desktop\Proyecto\KardexStore\src\main\java\com\cidenet\kardex\modelDao\PriceOfProductDao.java
C:\Users\JCUESTA\Desktop\Proyecto\KardexStore\src\main\java\com\cidenet\kardex\modelDao\SizeDao.java
C:\Users\JCUESTA\Desktop\Proyecto\KardexStore\src\main\java\com\cidenet\kardex\model\ProductTypeModel.java
C:\Users\JCUESTA\Desktop\Proyecto\KardexStore\src\main\java\com\cidenet\kardex\modelDao\DocumentTypeDao.java
C:\Users\JCUESTA\Desktop\Proyecto\KardexStore\src\main\java\com\cidenet\kardex\controller\EmployeeController.java
C:\Users\JCUESTA\Desktop\Proyecto\KardexStore\src\main\java\com\cidenet\kardex\controller\StoreController.java
C:\Users\JCUESTA\Desktop\Proyecto\KardexStore\src\main\java\com\cidenet\kardex\controller\SizeController.java
C:\Users\JCUESTA\Desktop\Proyecto\KardexStore\src\main\java\com\cidenet\kardex\model\PersonageModel.java
C:\Users\JCUESTA\Desktop\Proyecto\KardexStore\src\main\java\com\cidenet\kardex\modelDao\StorageDao.java
C:\Users\JCUESTA\Desktop\Proyecto\KardexStore\src\main\java\com\cidenet\kardex\interfaces\PriceOfProductType.java
C:\Users\JCUESTA\Desktop\Proyecto\KardexStore\src\main\java\com\cidenet\kardex\interfaces\ProductType.java
C:\Users\JCUESTA\Desktop\Proyecto\KardexStore\src\main\java\com\cidenet\kardex\interfaces\Order.java
C:\Users\JCUESTA\Desktop\Proyecto\KardexStore\src\main\java\com\cidenet\kardex\interfaces\DocumentType.java
C:\Users\JCUESTA\Desktop\Proyecto\KardexStore\src\main\java\com\cidenet\kardex\configuration\Conexion.java
C:\Users\JCUESTA\Desktop\Proyecto\KardexStore\src\main\java\com\cidenet\kardex\modelDao\StoreDao.java
